Wed Sep  4 16:52:27 CEST 2019
Preloading tcmalloc_minimal.so
Py:Athena            INFO including file "AthenaCommon/Preparation.py"
Py:Athena            INFO using release [WorkDir-22.0.5] [x86_64-centos7-gcc8-opt] [dvbase.AthContainers-20190902/498e6d57a471] -- built on [2019-09-04T1645]
Py:Athena            INFO including file "AthenaCommon/Atlas.UnixStandardJob.py"
Py:Athena            INFO executing ROOT6Setup
Py:Athena            INFO including file "AthenaCommon/Execution.py"
Py:Athena            INFO including file "AthExStoreGateExample/StoreGateExample_Gen_jobOptions.py"
Py:ConfigurableDb    INFO Read module info for 5534 configurables from 10 genConfDb files
Py:ConfigurableDb    INFO No duplicates have been found: that's good !
Py:Athena            INFO including file "AthenaCommon/runbatch.py"
ApplicationMgr       INFO Updating Gaudi::PluginService::SetDebug(level) to level= 'PluginDebugLevel':0
ApplicationMgr       INFO Updating Gaudi::PluginService::SetDebug(level) to level= 'PluginDebugLevel':0
ApplicationMgr    SUCCESS 
====================================================================================================================================
                                                   Welcome to ApplicationMgr (GaudiCoreSvc v32r1)
                                          running on lxplus776.cern.ch on Wed Sep  4 16:52:37 2019
====================================================================================================================================
ApplicationMgr       INFO Application Manager Configured successfully
ApplicationMgr       INFO Updating Gaudi::PluginService::SetDebug(level) to level= 'PluginDebugLevel':0[m
StatusCodeSvc        INFO initialize[m
AthDictLoaderSvc     INFO in initialize...[m
AthDictLoaderSvc     INFO acquired Dso-registry[m
ClassIDSvc           INFO  getRegistryEntries: read 3273 CLIDRegistry entries for module ALL[m
CoreDumpSvc          INFO install f-a-t-a-l handler... (flag = -1)[m
CoreDumpSvc          INFO Handling signals: 11(Segmentation fault) 7(Bus error) 4(Illegal instruction) 8(Floating point exception) [m
AthenaEventLoopMgr   INFO Initializing AthenaEventLoopMgr - package version AthenaServices-00-00-00[m
ClassIDSvc           INFO  getRegistryEntries: read 925 CLIDRegistry entries for module ALL[m
WriteData            INFO in initialize()[m
StoreGateSvc        DEBUG Property update for OutputLevel : new value = 1[m
StoreGateSvc        DEBUG Service base class initialized successfully[m
StoreGateSvc      VERBOSE Initializing StoreGateSvc - package version StoreGate-00-00-00[m
StoreGateSvc        DEBUG trying to create store SGImplSvc/StoreGateSvc_Impl[m
StoreGateSvc_Impl   DEBUG Property update for OutputLevel : new value = 1[m
StoreGateSvc_Impl VERBOSE Initializing StoreGateSvc_Impl - package version StoreGate-00-00-00[m
StoreGateSvc_Impl   DEBUG Service base class initialized successfully[m
StoreGateSvc_Impl VERBOSE ServiceLocatorHelper::service: found service EventPersistencySvc[m
StoreGateSvc_Impl VERBOSE ServiceLocatorHelper::service: found service ClassIDSvc[m
ReadData             INFO in initialize()[m
ReadData             INFO Data Object producer: WriteData[m
[93;1mHistogramPersis...WARNING Histograms saving not required.[m
ApplicationMgr       INFO Application Manager Initialized successfully[m
ApplicationMgr       INFO Application Manager Started successfully[m
AthenaEventLoopMgr   INFO   ===>>>  start of run 1    <<<===[m
AthenaEventLoopMgr   INFO   ===>>>  start processing event #1, run #1 0 events processed so far  <<<===[m
WriteData            INFO in execute()[m
StoreGateSvc        DEBUG Recorded object @0x121291c0 with key  of type MyDataObj(CLID 8000)
 in DataObject @0x142df220
 object not modifiable when retrieved[m
[93;1mWriteData         WARNING we expect  an error message here[m
[93;1mStoreGateSvc_Impl WARNING  setupProxy:: error setting up proxy for key  and clid 8000
 Pre-existing valid DataProxy @0x1260b7c0 found in Store for key  with clid 8000[m
ClassIDSvc           INFO  getRegistryEntries: read 423 CLIDRegistry entries for module ALL[m
[93;1mStoreGateSvc_Impl WARNING record_impl: Problem setting up the proxy for object @0x12129440
 recorded with key  of type MyDataObj (CLID 8000) in DataObject @0x142df270[m
[93;1mWriteData         WARNING end of error message[m
StoreGateSvc        DEBUG Recorded object @0x12128440 with key WriteData of type MyDataObj(CLID 8000)
 in DataObject @0x142df810
 object modifiable when retrieved[m
StoreGateSvc        DEBUG Recorded object @0x14bcc6c0 with key  of type DataVector<MyContObj>(CLID 9967)
 in DataObject @0x14b36f50
 object not modifiable when retrieved[m
StoreGateSvc        DEBUG Recorded object @0x142cb960 with key  of type std::vector<float>(CLID 202242136)
 in DataObject @0x142df9a0
 object not modifiable when retrieved[m
StoreGateSvc        DEBUG Recorded object @0x142e4d80 with key  of type std::map<std::string,float>(CLID 193758082)
 in DataObject @0x142dfa90
 object not modifiable when retrieved[m
StoreGateSvc        DEBUG Recorded object @0x121287c0 with key dobj2 of type MyDataObj(CLID 8000)
 in DataObject @0x142dfb30
 object modifiable when retrieved[m
StoreGateSvc        DEBUG Recorded object @0x142cb7e0 with key WriteData of type std::list< ElementLink< std::vector<float> > >(CLID 9984)
 in DataObject @0x142dfbd0
 object not modifiable when retrieved[m
StoreGateSvc        DEBUG Recorded object @0x142cb760 with key  of type std::vector< ElementLink<MapStringFloat> >(CLID 9983)
 in DataObject @0x142de370
 object not modifiable when retrieved[m
WriteData            INFO  registered all data objects[m
WriteData            INFO  StoreGate structure before returning from execute 
<<<<<<<<<<<<<<<<< Data Store Dump >>>>>>>>>>>>>>> 
SGImplSvc(StoreGateSvc_Impl)::dump():
Found 2 proxies for ClassID 1434 (BaseClass): 
 flags: (  valid,   locked,  reset) --- data: 0x142df220 --- key: 
 flags: (  valid, UNLOCKED,  reset) --- data: 0x142df810 --- key: WriteData
Found 1 proxy for ClassID 2101 (EventInfo): 
 flags: (  valid, UNLOCKED,  reset) --- data: 0x142de870 --- key: 
Found 3 proxies for ClassID 8000 (MyDataObj): 
 flags: (  valid,   locked,  reset) --- data: 0x142df220 --- key: 
 flags: (  valid, UNLOCKED,  reset) --- data: 0x142df810 --- key: WriteData
 flags: (  valid, UNLOCKED,  reset) --- data: 0x142dfb30 --- key: dobj2
Found 1 proxy for ClassID 9967 (DataVector<MyContObj>): 
 flags: (  valid,   locked,  reset) --- data: 0x14b36f50 --- key: 
Found 1 proxy for ClassID 9983 (std::vector< ElementLink<MapStringFloat> >): 
 flags: (  valid,   locked,  reset) --- data: 0x142de370 --- key: 
Found 1 proxy for ClassID 9984 (std::list< ElementLink< std::vector<float> > >): 
 flags: (  valid,   locked,  reset) --- data: 0x142dfbd0 --- key: WriteData
Found 1 proxy for ClassID 33347479 (SG::AuxVectorBase): 
 flags: (  valid,   locked,  reset) --- data: 0x14b36f50 --- key: 
Found 1 proxy for ClassID 55596997 (EventContext): 
 flags: (  valid, UNLOCKED,  reset) --- data: 0x142df040 --- key: EventContext
Found 1 proxy for ClassID 193758082 (std::map<std::string,float>): 
 flags: (  valid,   locked,  reset) --- data: 0x142dfa90 --- key: 
Found 1 proxy for ClassID 202242136 (std::vector<float>): 
 flags: (  valid,   locked,  reset) --- data: 0x142df9a0 --- key: 
<<<<<<<<<<<<<<<<<<<<<<<<<>>>>>>>>>>>>>>>>>>>>>>>> 
[m
ReadData             INFO in execute()[m
ReadData             INFO Get the MyDataObj recorded by WriteData[m
StoreGateSvc        DEBUG Retrieved non-const pointer to object WriteData  of type MyDataObj(CLID 8000)[m
[93;1mReadData          WARNING FIXME loop of ConstIterator bombs[m
StoreGateSvc        DEBUG retrieve(default): Retrieved const pointer to default object 
 of type DataVector<MyContObj>(CLID 9967)[m
ReadData             INFO Retrieved DataVector of MyContObj using a const pointer[m
ReadData             INFO Time: 11.3  ID: 132[m
ReadData             INFO Time: 41.7  ID: 291[m
StoreGateSvc        DEBUG retrieve(default): Retrieved const pointer to default object 
 of type std::vector<float>(CLID 202242136)[m
ReadData             INFO pVec [0] = 1[m
ReadData             INFO pVec [1] = 2[m
ReadData             INFO pVec [2] = 3[m
ReadData             INFO event store does not contain MyDataObj with FunnyNonExistingKey[m
StoreGateSvc        DEBUG retrieve(default): Retrieved const pointer to default object 
 of type std::list< ElementLink< std::vector<float> > >(CLID 9984)[m
ReadData             INFO Retrieved list of links[m
ReadData             INFO ListVecLinks::linked element 1[m
ReadData             INFO ListVecLinks::linked element 3[m
StoreGateSvc        DEBUG retrieve(default): Retrieved const pointer to default object 
 of type std::vector< ElementLink<MapStringFloat> >(CLID 9983)[m
ReadData             INFO Retrieved vector of links[m
ReadData             INFO VectorMapLinks::linked element: key uno - value 1 - stored as 0x144fa73c[m
ReadData             INFO VectorMapLinks::linked element: key due - value 2 - stored as 0x144fa77c[m
ReadData             INFO  retrieve as BaseClass, print its address: [m
ReadData             INFO 0x121291c0[m
ReadData             INFO 0x12128440[m
ReadData             INFO  EventInfo :  event: 1 run: 1[m
AthenaEventLoopMgr   INFO   ===>>>  done processing event #1, run #1 1 events processed so far  <<<===[m
StoreGateSvc_Impl   DEBUG Clearing store with forceRemove=0[m
AthenaEventLoopMgr   INFO   ===>>>  start processing event #2, run #1 1 events processed so far  <<<===[m
WriteData            INFO in execute()[m
StoreGateSvc        DEBUG Recorded object @0x121287c0 with key  of type MyDataObj(CLID 8000)
 in DataObject @0x142dfb30
 object not modifiable when retrieved[m
[93;1mWriteData         WARNING we expect  an error message here[m
[93;1mStoreGateSvc_Impl WARNING  setupProxy:: error setting up proxy for key  and clid 8000
 Pre-existing valid DataProxy @0x1260b7c0 found in Store for key  with clid 8000[m
[93;1mStoreGateSvc_Impl WARNING record_impl: Problem setting up the proxy for object @0x12129770
 recorded with key  of type MyDataObj (CLID 8000) in DataObject @0x142dfa90[m
[93;1mWriteData         WARNING end of error message[m
StoreGateSvc        DEBUG Recorded object @0x12128440 with key WriteData of type MyDataObj(CLID 8000)
 in DataObject @0x142ded70
 object modifiable when retrieved[m
StoreGateSvc        DEBUG Recorded object @0x14bcc6c0 with key  of type DataVector<MyContObj>(CLID 9967)
 in DataObject @0x14b36f50
 object not modifiable when retrieved[m
StoreGateSvc        DEBUG Recorded object @0x142cb8c0 with key  of type std::vector<float>(CLID 202242136)
 in DataObject @0x142df9a0
 object not modifiable when retrieved[m
StoreGateSvc        DEBUG Recorded object @0x142e4d80 with key  of type std::map<std::string,float>(CLID 193758082)
 in DataObject @0x142df220
 object not modifiable when retrieved[m
StoreGateSvc        DEBUG Recorded object @0x12129440 with key dobj2 of type MyDataObj(CLID 8000)
 in DataObject @0x142df040
 object modifiable when retrieved[m
StoreGateSvc        DEBUG Recorded object @0x142c7cc0 with key WriteData of type std::list< ElementLink< std::vector<float> > >(CLID 9984)
 in DataObject @0x142de870
 object not modifiable when retrieved[m
StoreGateSvc        DEBUG Recorded object @0x142cb6e0 with key  of type std::vector< ElementLink<MapStringFloat> >(CLID 9983)
 in DataObject @0x142df270
 object not modifiable when retrieved[m
WriteData            INFO  registered all data objects[m
WriteData            INFO  StoreGate structure before returning from execute 
<<<<<<<<<<<<<<<<< Data Store Dump >>>>>>>>>>>>>>> 
SGImplSvc(StoreGateSvc_Impl)::dump():
Found 2 proxies for ClassID 1434 (BaseClass): 
 flags: (  valid,   locked,  reset) --- data: 0x142dfb30 --- key: 
 flags: (  valid, UNLOCKED,  reset) --- data: 0x142ded70 --- key: WriteData
Found 1 proxy for ClassID 2101 (EventInfo): 
 flags: (  valid, UNLOCKED,  reset) --- data: 0x142de370 --- key: 
Found 3 proxies for ClassID 8000 (MyDataObj): 
 flags: (  valid,   locked,  reset) --- data: 0x142dfb30 --- key: 
 flags: (  valid, UNLOCKED,  reset) --- data: 0x142ded70 --- key: WriteData
 flags: (  valid, UNLOCKED,  reset) --- data: 0x142df040 --- key: dobj2
Found 1 proxy for ClassID 9967 (DataVector<MyContObj>): 
 flags: (  valid,   locked,  reset) --- data: 0x14b36f50 --- key: 
Found 1 proxy for ClassID 9983 (std::vector< ElementLink<MapStringFloat> >): 
 flags: (  valid,   locked,  reset) --- data: 0x142df270 --- key: 
Found 1 proxy for ClassID 9984 (std::list< ElementLink< std::vector<float> > >): 
 flags: (  valid,   locked,  reset) --- data: 0x142de870 --- key: WriteData
Found 1 proxy for ClassID 33347479 (SG::AuxVectorBase): 
 flags: (  valid,   locked,  reset) --- data: 0x14b36f50 --- key: 
Found 1 proxy for ClassID 55596997 (EventContext): 
 flags: (  valid, UNLOCKED,  reset) --- data: 0x142dfbd0 --- key: EventContext
Found 1 proxy for ClassID 193758082 (std::map<std::string,float>): 
 flags: (  valid,   locked,  reset) --- data: 0x142df220 --- key: 
Found 1 proxy for ClassID 202242136 (std::vector<float>): 
 flags: (  valid,   locked,  reset) --- data: 0x142df9a0 --- key: 
<<<<<<<<<<<<<<<<<<<<<<<<<>>>>>>>>>>>>>>>>>>>>>>>> 
[m
ReadData             INFO in execute()[m
ReadData             INFO Get the MyDataObj recorded by WriteData[m
StoreGateSvc        DEBUG Retrieved non-const pointer to object WriteData  of type MyDataObj(CLID 8000)[m
[93;1mReadData          WARNING FIXME loop of ConstIterator bombs[m
StoreGateSvc        DEBUG retrieve(default): Retrieved const pointer to default object 
 of type DataVector<MyContObj>(CLID 9967)[m
ReadData             INFO Retrieved DataVector of MyContObj using a const pointer[m
ReadData             INFO Time: 11.3  ID: 132[m
ReadData             INFO Time: 41.7  ID: 291[m
StoreGateSvc        DEBUG retrieve(default): Retrieved const pointer to default object 
 of type std::vector<float>(CLID 202242136)[m
ReadData             INFO pVec [0] = 1[m
ReadData             INFO pVec [1] = 2[m
ReadData             INFO pVec [2] = 3[m
ReadData             INFO event store does not contain MyDataObj with FunnyNonExistingKey[m
StoreGateSvc        DEBUG retrieve(default): Retrieved const pointer to default object 
 of type std::list< ElementLink< std::vector<float> > >(CLID 9984)[m
ReadData             INFO Retrieved list of links[m
ReadData             INFO ListVecLinks::linked element 1[m
ReadData             INFO ListVecLinks::linked element 3[m
StoreGateSvc        DEBUG retrieve(default): Retrieved const pointer to default object 
 of type std::vector< ElementLink<MapStringFloat> >(CLID 9983)[m
ReadData             INFO Retrieved vector of links[m
ReadData             INFO VectorMapLinks::linked element: key uno - value 1 - stored as 0x14b3ce3c[m
ReadData             INFO VectorMapLinks::linked element: key due - value 2 - stored as 0x14b3ce7c[m
ReadData             INFO  retrieve as BaseClass, print its address: [m
ReadData             INFO 0x121287c0[m
ReadData             INFO 0x12128440[m
ReadData             INFO  EventInfo :  event: 2 run: 1[m
AthenaEventLoopMgr   INFO   ===>>>  done processing event #2, run #1 2 events processed so far  <<<===[m
StoreGateSvc_Impl   DEBUG Clearing store with forceRemove=0[m
AthenaEventLoopMgr   INFO   ===>>>  start processing event #3, run #1 2 events processed so far  <<<===[m
WriteData            INFO in execute()[m
StoreGateSvc        DEBUG Recorded object @0x12129440 with key  of type MyDataObj(CLID 8000)
 in DataObject @0x142df040
 object not modifiable when retrieved[m
[93;1mWriteData         WARNING we expect  an error message here[m
[93;1mStoreGateSvc_Impl WARNING  setupProxy:: error setting up proxy for key  and clid 8000
 Pre-existing valid DataProxy @0x1260b7c0 found in Store for key  with clid 8000[m
[93;1mStoreGateSvc_Impl WARNING record_impl: Problem setting up the proxy for object @0x121291c0
 recorded with key  of type MyDataObj (CLID 8000) in DataObject @0x142df220[m
[93;1mWriteData         WARNING end of error message[m
StoreGateSvc        DEBUG Recorded object @0x12128440 with key WriteData of type MyDataObj(CLID 8000)
 in DataObject @0x142df810
 object modifiable when retrieved[m
StoreGateSvc        DEBUG Recorded object @0x14bcc6c0 with key  of type DataVector<MyContObj>(CLID 9967)
 in DataObject @0x14b36f50
 object not modifiable when retrieved[m
StoreGateSvc        DEBUG Recorded object @0x142cba00 with key  of type std::vector<float>(CLID 202242136)
 in DataObject @0x142df9a0
 object not modifiable when retrieved[m
StoreGateSvc        DEBUG Recorded object @0x142e4d80 with key  of type std::map<std::string,float>(CLID 193758082)
 in DataObject @0x142dfb30
 object not modifiable when retrieved[m
StoreGateSvc        DEBUG Recorded object @0x12129770 with key dobj2 of type MyDataObj(CLID 8000)
 in DataObject @0x142dfbd0
 object modifiable when retrieved[m
StoreGateSvc        DEBUG Recorded object @0x142c7460 with key WriteData of type std::list< ElementLink< std::vector<float> > >(CLID 9984)
 in DataObject @0x142de370
 object not modifiable when retrieved[m
StoreGateSvc        DEBUG Recorded object @0x142c7d00 with key  of type std::vector< ElementLink<MapStringFloat> >(CLID 9983)
 in DataObject @0x142dfa90
 object not modifiable when retrieved[m
WriteData            INFO  registered all data objects[m
WriteData            INFO  StoreGate structure before returning from execute 
<<<<<<<<<<<<<<<<< Data Store Dump >>>>>>>>>>>>>>> 
SGImplSvc(StoreGateSvc_Impl)::dump():
Found 2 proxies for ClassID 1434 (BaseClass): 
 flags: (  valid,   locked,  reset) --- data: 0x142df040 --- key: 
 flags: (  valid, UNLOCKED,  reset) --- data: 0x142df810 --- key: WriteData
Found 1 proxy for ClassID 2101 (EventInfo): 
 flags: (  valid, UNLOCKED,  reset) --- data: 0x142df270 --- key: 
Found 3 proxies for ClassID 8000 (MyDataObj): 
 flags: (  valid,   locked,  reset) --- data: 0x142df040 --- key: 
 flags: (  valid, UNLOCKED,  reset) --- data: 0x142df810 --- key: WriteData
 flags: (  valid, UNLOCKED,  reset) --- data: 0x142dfbd0 --- key: dobj2
Found 1 proxy for ClassID 9967 (DataVector<MyContObj>): 
 flags: (  valid,   locked,  reset) --- data: 0x14b36f50 --- key: 
Found 1 proxy for ClassID 9983 (std::vector< ElementLink<MapStringFloat> >): 
 flags: (  valid,   locked,  reset) --- data: 0x142dfa90 --- key: 
Found 1 proxy for ClassID 9984 (std::list< ElementLink< std::vector<float> > >): 
 flags: (  valid,   locked,  reset) --- data: 0x142de370 --- key: WriteData
Found 1 proxy for ClassID 33347479 (SG::AuxVectorBase): 
 flags: (  valid,   locked,  reset) --- data: 0x14b36f50 --- key: 
Found 1 proxy for ClassID 55596997 (EventContext): 
 flags: (  valid, UNLOCKED,  reset) --- data: 0x142de870 --- key: EventContext
Found 1 proxy for ClassID 193758082 (std::map<std::string,float>): 
 flags: (  valid,   locked,  reset) --- data: 0x142dfb30 --- key: 
Found 1 proxy for ClassID 202242136 (std::vector<float>): 
 flags: (  valid,   locked,  reset) --- data: 0x142df9a0 --- key: 
<<<<<<<<<<<<<<<<<<<<<<<<<>>>>>>>>>>>>>>>>>>>>>>>> 
[m
ReadData             INFO in execute()[m
ReadData             INFO Get the MyDataObj recorded by WriteData[m
StoreGateSvc        DEBUG Retrieved non-const pointer to object WriteData  of type MyDataObj(CLID 8000)[m
[93;1mReadData          WARNING FIXME loop of ConstIterator bombs[m
StoreGateSvc        DEBUG retrieve(default): Retrieved const pointer to default object 
 of type DataVector<MyContObj>(CLID 9967)[m
ReadData             INFO Retrieved DataVector of MyContObj using a const pointer[m
ReadData             INFO Time: 11.3  ID: 132[m
ReadData             INFO Time: 41.7  ID: 291[m
StoreGateSvc        DEBUG retrieve(default): Retrieved const pointer to default object 
 of type std::vector<float>(CLID 202242136)[m
ReadData             INFO pVec [0] = 1[m
ReadData             INFO pVec [1] = 2[m
ReadData             INFO pVec [2] = 3[m
ReadData             INFO event store does not contain MyDataObj with FunnyNonExistingKey[m
StoreGateSvc        DEBUG retrieve(default): Retrieved const pointer to default object 
 of type std::list< ElementLink< std::vector<float> > >(CLID 9984)[m
ReadData             INFO Retrieved list of links[m
ReadData             INFO ListVecLinks::linked element 1[m
ReadData             INFO ListVecLinks::linked element 3[m
StoreGateSvc        DEBUG retrieve(default): Retrieved const pointer to default object 
 of type std::vector< ElementLink<MapStringFloat> >(CLID 9983)[m
ReadData             INFO Retrieved vector of links[m
ReadData             INFO VectorMapLinks::linked element: key uno - value 1 - stored as 0x144fa73c[m
ReadData             INFO VectorMapLinks::linked element: key due - value 2 - stored as 0x144fa77c[m
ReadData             INFO  retrieve as BaseClass, print its address: [m
ReadData             INFO 0x12129440[m
ReadData             INFO 0x12128440[m
ReadData             INFO  EventInfo :  event: 3 run: 1[m
AthenaEventLoopMgr   INFO   ===>>>  done processing event #3, run #1 3 events processed so far  <<<===[m
StoreGateSvc_Impl   DEBUG Clearing store with forceRemove=0[m
StoreGateSvc      VERBOSE Stop StoreGateSvc[m
StoreGateSvc      VERBOSE stop: setting service priority to 101 so that event stores get finalized and cleared before other stores[m
ApplicationMgr       INFO Application Manager Stopped successfully[m
IncidentProcAlg1     INFO Finalize[m
WriteData            INFO in finalize()[m
ReadData             INFO in finalize()[m
IncidentProcAlg2     INFO Finalize[m
StoreGateSvc      VERBOSE Finalizing StoreGateSvc - package version StoreGate-00-00-00[m
StoreGateSvc_Impl VERBOSE Finalizing StoreGateSvc_Impl - package version StoreGate-00-00-00[m
StoreGateSvc_Impl   DEBUG Clearing store with forceRemove=1[m
AthDictLoaderSvc     INFO in finalize...[m
ToolSvc              INFO Removing all tools created by ToolSvc[m
*****Chrono*****     INFO ****************************************************************************************************[m
*****Chrono*****     INFO  The Final CPU consumption ( Chrono ) Table (ordered)[m
*****Chrono*****     INFO ****************************************************************************************************[m
ChronoStatSvc        INFO Time User   : Tot=   60 [ms]                                             #=  1[m
*****Chrono*****     INFO ****************************************************************************************************[m
ChronoStatSvc.f...   INFO  Service finalized successfully [m
ApplicationMgr       INFO Application Manager Finalized successfully[m
ApplicationMgr       INFO Application Manager Terminated successfully[m
Py:Athena            INFO leaving with code 0: "successful run"
